Simulating recurrent event data • reReg
…
Number of x1 == 1: 112 (56%); Number of x1 == 0: 88 (44%)
Summary results for x2:
    Min.  1st Qu.   Median     Mean  3rd Qu.     Max. 
-2.33329 -0.70020  0.02404 -0.03567  0.59424  2.78031 

The output of simSC are tibble objects.

> class(dat.cox)

[1] "tbl_df"     "tbl"        "data.frame"

> dat.cox

# A tibble: 974 x 6
      id    Time event status    x1     x2
   <int>   <dbl> <dbl>  <dbl> <dbl>  <dbl>
 1     1  0.0737     1      0     0  0.801
 2     1  0.152      1      0     0  0.801
 3     1  0.190      1      0     0  0.801
 4     1  0.224      0      1     0  0.801
 5     2  1.14       1      0     1 -0.687
 6     2  4.92       1      0     1 -0.687
 7     2  8.84       1      0     1 -0.687
 8     2 60          0      0     1 -0.687
 9     3  0.403      1      0     0  1.79 
10     3  0.505      1      0     0  1.79 
# ... with 964 more rows
…
