Visualization of recurrent event data • reReg
…
There are a few ways to create an reSurv object. When the starting times and the ending times of recurrent events are known, one can specify both times in reSurv. 

> reSurv(time1 = t.start, time2 = t.stop, id = id, event = event, status = death)
> reSurv(time1 = t.stop, id = id, event = event, status = death)

The same reSurv objects can be achieved without specifying the argument names:

> reSurv(t.start, t.stop, id, event, death)
> reSurv(t.stop, id, event, death)

The function reSurv prints a list-column tibble.

> reSurv(t.stop, id, event, death)

# A tibble: 403 x 5
     id recTime   recType   temTime temStatus
  <int> <list>    <list>      <dbl>     <dbl>
1     1 <dbl [2]> <int [2]>    1037         0
2     2 <dbl [1]> <int [1]>    1182         0
3     3 <dbl [1]> <int [1]>     783         1
4     4 <dbl [4]> <int [4]>    2048         0
5     5 <dbl [1]> <int [1]>    1144         0
# ... with 398 more rows
…
