Function to generate simulated data — simSC • reReg
…
simSC(200, c(-1, 1), c(-1, 1), summary = TRUE)
#> 
#> Summary results for number of recurrent event per subject:
#>    Min. 1st Qu.  Median    Mean 3rd Qu.    Max. 
#>    0.00    1.00    2.00    3.87    5.00   33.00 
#> 
#> Number of failures: 49 (24.5%); Number of censored events: 151 (75.5%)
#> 
#> Number of x1 == 1: 96 (48%); Number of x1 == 0: 104 (52%)
#> Summary results for x2:
#>     Min.  1st Qu.   Median     Mean  3rd Qu.     Max. 
#> -2.16226 -0.68832 -0.08922 -0.04727  0.61537  2.43023 
#> 
#> 
#> # A tibble: 974 x 6
#>       id    Time event status    x1     x2
#>    <int>   <dbl> <dbl>  <dbl> <dbl>  <dbl>
#>  1     1  0.0737     1      0     0  0.801
#>  2     1  0.152      1      0     0  0.801
#>  3     1  0.190      1      0     0  0.801
#>  4     1  0.224      0      1     0  0.801
#>  5     2  1.14       1      0     1 -0.687
#>  6     2  4.92       1      0     1 -0.687
#>  7     2  8.84       1      0     1 -0.687
#>  8     2 60          0      0     1 -0.687
#>  9     3  0.403      1      0     0  1.79 
#> 10     3  0.505      1      0     0  1.79 
#> # ... with 964 more rows
…
